36308 41522 58016 57194 60054 60361 62408 63244 63699 64994 66534
36059 32965 31550 31335 31390 31009 30881 30709 30437 30924 31345
37158 37051 37515 37723 37389 37732 37683 37660 37613 37491 37681
36649 36828 36849 36976 36856 36894 36970 37105 36851 36989 36440
35793 36191 35975 36190 36054 36219 36235 36432 36159 35671 36020
