312 363 350 358 349 353 357 354 359 360 360
315 354 359 352 355 350 361 352 355 364 357
313 340 333 339 329 330 326 335 337 331 339
308 362 374 371 364 362 369 364 364 360 369
305 357 363 364 369 362 379 375 361 374 369